{
  "info": {
    "_postman_id": "b0341326-ad9c-48e5-82d9-dc87e8161f64",
    "name": "project-1",
    "schema": "https://schema.getpostman.com/json/collection/v2.0.0/collection.json"
  },
  "item": [
    {
      "name": "posts",
      "id": "c90fe9ba-bd30-4db3-9ced-b5c4eeb19a46",
      "protocolProfileBehavior": {
        "disableBodyPruning": true
      },
      "request": {
        "method": "GET",
        "header": [],
        "url": "https://jsonplaceholder.typicode.com/posts"
      },
      "response": []
    },
    {
      "name": "comments",
      "id": "b8b49a69-c918-4675-9c24-2dcef1bf9bf8",
      "protocolProfileBehavior": {
        "disableBodyPruning": true
      },
      "request": {
        "method": "GET",
        "header": [],
        "url": "https://jsonplaceholder.typicode.com/comments"
      },
      "response": []
    },
    {
      "name": "photos",
      "id": "2d04e450-84f3-4d15-921e-376519663207",
      "protocolProfileBehavior": {
        "disableBodyPruning": true
      },
      "request": {
        "method": "GET",
        "header": [],
        "url": "https://jsonplaceholder.typicode.com/photos"
      },
      "response": []
    },
    {
      "name": "users",
      "id": "503d8044-4c1b-43ec-a221-ccf8e811fe15",
      "protocolProfileBehavior": {
        "disableBodyPruning": true
      },
      "request": {
        "method": "GET",
        "header": [],
        "url": "https://jsonplaceholder.typicode.com/users"
      },
      "response": []
    },
    {
      "name": "todos",
      "id": "d6b00cbd-5dcc-41b9-a396-528245965a7c",
      "protocolProfileBehavior": {
        "disableBodyPruning": true
      },
      "request": {
        "method": "GET",
        "header": [],
        "url": "https://jsonplaceholder.typicode.com/todos"
      },
      "response": []
    },
    {
      "name": "New Request",
      "id": "5167e51d-7ff4-41c1-ae15-adcb5c894df8",
      "protocolProfileBehavior": {
        "disableBodyPruning": true
      },
      "request": {
        "method": "GET",
        "header": [],
        "url": "https://jsonplaceholder.typicode.com/albums"
      },
      "response": []
    }
  ]
}